﻿姓名,本科毕业院校,复试成绩,录取单位代码,录取专业代码及名称,录取学科方向代码,招生类型,年份
蔡潮鑫,兰州大学,84.43,670,81200,69,硕士,2020
蔡忠腾,电子科技大学,90.03,670,81200,69,硕士,2020
陈泓仰,中山大学,90.27,670,81200,69,硕士,2020
陈笑儒,中山大学,89.71,670,81200,69,硕士,2020
董钧昊,福州大学,85.51,670,81200,69,硕士,2020
古文鑫,中山大学,93.78,670,81200,69,硕士,2020
洪思琪,中山大学,85.48,670,81200,69,硕士,2020
胡彦旭,暨南大学,84.1,670,81200,69,硕士,2020
黄俊康,中山大学,83.92,670,81200,69,硕士,2020
黄俊颖,中山大学,86.43,670,81200,69,硕士,2020
黄义凯,中山大学,92.48,670,81200,69,硕士,2020
雷至祺,中山大学,86.28,670,81200,69,硕士,2020
李竞宜,华南理工大学,85.85,670,81200,69,硕士,2020
李铭豪,华南理工大学,90.63,670,81200,69,硕士,2020
李智源,中山大学,86.23,670,81200,69,硕士,2020
梁子宏,华南师范大学,85.66,670,81200,69,硕士,2020
廖蕾,中山大学,85.7,670,81200,69,硕士,2020
廖培湧,华南理工大学,90.83,670,81200,69,硕士,2020
林城梽,中山大学,84.63,670,81200,69,硕士,2020
林子杭,中山大学,87.22,670,81200,69,硕士,2020
欧穗新,中山大学,86.79,670,81200,69,硕士,2020
潘子祥,河海大学,89.57,670,81200,69,硕士,2020
彭启标,重庆大学,86.87,670,81200,69,硕士,2020
彭肖文,中山大学,84.31,670,81200,69,硕士,2020
蒲韬,中山大学,86.6,670,81200,69,硕士,2020
邱晓裕,中山大学,90.13,670,81200,69,硕士,2020
石威,重庆大学,91.28,670,81200,69,硕士,2020
舒琳,中山大学,85.9,670,81200,69,硕士,2020
孙江鑫,中山大学,91.75,670,81200,69,硕士,2020
田博文,华南理工大学,88.64,670,81200,69,硕士,2020
王季宁,中山大学,83.83,670,81200,69,硕士,2020
王阔,中山大学,84.5,670,81200,69,硕士,2020
翁跃,华南理工大学,88.64,670,81200,69,硕士,2020
伍兆贤,中山大学,84.29,670,81200,69,硕士,2020
夏一钧,西安电子科技大学,85.72,670,81200,69,硕士,2020
肖遥,中山大学,88.93,670,81200,69,硕士,2020
杨崇钰,重庆大学,86.91,670,81200,69,硕士,2020
杨文卓,中南大学,86.02,670,81200,69,硕士,2020
杨元昊,中山大学,87.59,670,81200,69,硕士,2020
张锐斐,西北农林科技大学,92.1,670,81200,69,硕士,2020
张少杰,西北工业大学,95.24,670,81200,69,硕士,2020
张洋,武汉理工大学,83.89,670,81200,69,硕士,2020
周佳明,四川大学,92.73,670,81200,69,硕士,2020
朱聿莹,厦门大学,97.76,670,81200,69,硕士,2020
毕结仪,中山大学,83.02,670,83500,69,硕士,2020
陈铎,东北大学,85.01,670,83500,69,硕士,2020
黄家熙,中山大学,82.03,670,83500,69,硕士,2020
宋晓彤,中山大学,84.22,670,83500,69,硕士,2020
王亮岛,中山大学,82.62,670,83500,69,硕士,2020
谢俊琨,东北大学,82.41,670,83500,69,硕士,2020
叶广智,中山大学,87.44,670,83500,69,硕士,2020
张晓彤,大连海事大学,82.53,670,83500,69,硕士,2020
邱宇堃,暨南大学,94.38,670,81200,69,硕士,2018
石振宇,华南师范大学,94.24,670,81200,69,硕士,2018
颜鹏翔,中山大学,94.19,670,81200,69,硕士,2018
钟洪桢,中山大学,93.98,670,81200,69,硕士,2018
王慧娟,中山大学,93.94,670,81200,69,硕士,2018
严志伟,汕头大学,93.92,670,81200,69,硕士,2018
叶泽坤,中山大学,93.91,670,81200,69,硕士,2018
许磊,中山大学,93.9,670,81200,69,硕士,2018
崔志颖,中南大学,93.31,670,81200,69,硕士,2018
舒倩,中山大学,93.11,670,81200,69,硕士,2018
李健恒,中山大学,92.95,670,81200,69,硕士,2018
高一鸣,华南理工大学,92.73,670,81200,69,硕士,2018
萧泽林,中山大学,92.48,670,81200,69,硕士,2018
曾烈康,中山大学,92.47,670,81200,69,硕士,2018
何晋豪,中山大学,92.4,670,81200,69,硕士,2018
王凯,中山大学,92.37,670,81200,69,硕士,2018
梁文琦,中山大学,92.33,670,81200,69,硕士,2018
林鸿鑫,中山大学,92.06,670,81200,69,硕士,2018
陈曼笙,华南农业大学,91.96,670,81200,69,硕士,2018
李源勋,西安交通大学,91.84,670,81200,69,硕士,2018
王凯,中山大学,91.75,670,81200,69,硕士,2018
苏竟成,中山大学,91.48,670,81200,69,硕士,2018
刘阳,中山大学,91.39,670,81200,69,硕士,2018
陈昱夫,中山大学,91.34,670,81200,69,硕士,2018
宋婷婷,中山大学,91.23,670,81200,69,硕士,2018
袁琪,安徽大学,91.22,670,81200,69,硕士,2018
李仲泓,中山大学,91.2,670,81200,69,硕士,2018
陈韦江,中山大学,90.93,670,81200,69,硕士,2018
吴润,华北电力大学,90.92,670,81200,69,硕士,2018
杨睿,中山大学,90.88,670,81200,69,硕士,2018
洪发挺,华南理工大学,90.76,670,81200,69,硕士,2018
郑昂宇,华南师范大学,90.76,670,81200,69,硕士,2018
蔡振华,中国海洋大学,90.76,670,81200,69,硕士,2018
王弘焌,中山大学,90.73,670,81200,69,硕士,2018
甘淳井,四川大学,90.62,670,81200,69,硕士,2018
罗文锋,华南理工大学,90.58,670,81200,69,硕士,2018
王佳豪,重庆大学,90.48,670,81200,69,硕士,2018
汪庭葳,四川大学,89.77,670,81200,69,硕士,2018
陈思远,中山大学,89.77,670,81200,69,硕士,2018
梁锦瑞,华南师范大学,89.47,670,81200,69,硕士,2018
户维波,重庆大学,89.21,670,81200,69,硕士,2018
高远,东北大学,89.09,670,81200,69,硕士,2018
李锐,华南理工大学,88.99,670,81200,69,硕士,2018
胡南,中山大学,88.29,670,81200,69,硕士,2018
王福宇,中山大学,90.42,670,83500,69,硕士,2018
张亚琛,中山大学,90.21,670,83500,69,硕士,2018
刘万腾,中山大学,89.34,670,83500,69,硕士,2018
吴星,中山大学,89.3,670,83500,69,硕士,2018
王庆,华南理工大学,89.28,670,83500,69,硕士,2018
梁于宁,中南大学,88.84,670,83500,69,硕士,2018
王臣,华南师范大学,88.5,670,83500,69,硕士,2018
陈嘉文,华南师范大学,88.39,670,83500,69,硕士,2018
窦耀勇,中山大学,93.76,670,85211,1,硕士,2018
刘金杨,中山大学,93.62,670,85211,1,硕士,2018
蔡桐钊,中山大学,92.39,670,85211,1,硕士,2018
梁艺阐,中山大学,92.34,670,85211,1,硕士,2018
颜子杰,河北工业大学,91.74,670,85211,1,硕士,2018
陈伟威,中山大学,91.21,670,85211,1,硕士,2018
甄家杰,中山大学,91.07,670,85211,1,硕士,2018
刘林林,中山大学,91.06,670,85211,1,硕士,2018
许海城,华南理工大学,91.03,670,85211,1,硕士,2018
陶雪锋,中山大学,90.74,670,85211,1,硕士,2018
杨旭韵,中山大学,90.58,670,85211,1,硕士,2018
翁运鹏,中山大学,90.55,670,85211,1,硕士,2018
吴木洪,中山大学,90.44,670,85211,1,硕士,2018
陈雅迪,中山大学,90.42,670,85211,1,硕士,2018
朱达辉,中山大学,90.35,670,85211,1,硕士,2018
胡弘康,中山大学,90.34,670,85211,1,硕士,2018
谢吉松,中山大学,90.32,670,85211,1,硕士,2018
白杨,中山大学,90.05,670,85211,1,硕士,2018
陈孟强,中山大学,89.93,670,85211,1,硕士,2018
林思宜,中山大学,89.62,670,85211,1,硕士,2018
廖至铨,中山大学,89.56,670,85211,1,硕士,2018
蓝海珊,中山大学,89.47,670,85211,1,硕士,2018
王资,中山大学,89.32,670,85211,1,硕士,2018
杨璐宇,厦门大学,89.32,670,85211,1,硕士,2018
庄嘉鑫,中山大学,89.28,670,85211,1,硕士,2018
何凯雯,中山大学,89.13,670,85211,1,硕士,2018
杨浩,中山大学,89.1,670,85211,1,硕士,2018
古剑锋,中山大学,89.08,670,85211,1,硕士,2018
钟琴,东北大学,89.07,670,85211,1,硕士,2018
孙茜,中山大学,89.07,670,85211,1,硕士,2018
吴昱焜,中山大学,89.03,670,85211,1,硕士,2018
王绍菊,中山大学,88.88,670,85211,1,硕士,2018
苏吟雪,吉林大学,88.84,670,85211,1,硕士,2018
林立晖,中山大学,88.77,670,85211,1,硕士,2018
吴晓茎,中南大学,88.72,670,85211,1,硕士,2018
王雪辉,山东大学,88.7,670,85211,1,硕士,2018
许瑶婷,中山大学,88.64,670,85211,1,硕士,2018
薛飞飞,中南大学,88.58,670,85211,1,硕士,2018
黄潮立,中山大学,88.51,670,85211,1,硕士,2018
黄蕴琦,中山大学,88.47,670,85211,1,硕士,2018
韩佳琪,中山大学,88.37,670,85211,1,硕士,2018
冯佳纯,中山大学,88.36,670,85211,1,硕士,2018
刘渊,中山大学,88.3,670,85211,1,硕士,2018
罗成于,华北电力大学,88.26,670,85211,1,硕士,2018
宋展仁,中山大学,88.19,670,85211,1,硕士,2018
张俊怡,东北大学,88.1,670,85211,1,硕士,2018
张榕瑜,中山大学,88.09,670,85211,1,硕士,2018
蔡昆京,中山大学,88.03,670,85211,1,硕士,2018
陈承勃,中山大学,88.02,670,85211,1,硕士,2018
何金钰,中山大学,87.98,670,85211,1,硕士,2018
惠晓璐,西北工业大学,87.97,670,85211,1,硕士,2018
江泓谕,中山大学,87.94,670,85211,1,硕士,2018
陈景文,中山大学,87.92,670,85211,1,硕士,2018
习芷铖,中山大学,87.83,670,85211,1,硕士,2018
李楠,中山大学,87.8,670,85211,1,硕士,2018
蔡佳然,中山大学,87.73,670,85211,1,硕士,2018
蔡岳,中山大学,89.06,670,85212,1,硕士,2018
舒丁飞,中山大学,88.89,670,85212,1,硕士,2018
刘劲,中山大学,88.72,670,85212,1,硕士,2018
于海涛,中山大学,88.04,670,85212,1,硕士,2018
林国丹,中山大学,87.93,670,85212,1,硕士,2018
周静文,华中师范大学,87.83,670,85212,1,硕士,2018
李子杰,中山大学,87.7,670,85212,1,硕士,2018
刘子璐,中山大学,87.67,670,85212,1,硕士,2018
刘百川,东北大学,87.66,670,85212,1,硕士,2018
张诗源,中山大学,87.63,670,85212,1,硕士,2018
施维,中山大学,87.59,670,85212,1,硕士,2018
刘颀,中山大学,87.4,670,85212,1,硕士,2018
田奕锐,中山大学,87.32,670,85212,1,硕士,2018
钟汉锐,中山大学,87.3,670,85212,1,硕士,2018
赵治豪,中山大学,87.3,670,85212,1,硕士,2018
关子杰,中南财经政法大学,87.3,670,85212,1,硕士,2018
郑慧琳,中山大学,87.26,670,85212,1,硕士,2018
欧佳玲,中山大学,87.25,670,85212,1,硕士,2018
潘杰森,中山大学,87.24,670,85212,1,硕士,2018
杨俊杰,中山大学,87.2,670,85212,1,硕士,2018
张仲南,大连理工大学,87.12,670,85212,1,硕士,2018
邓卓爽,华南师范大学,87.1,670,85212,1,硕士,2018
陈熙龙,中山大学,87.03,670,85212,1,硕士,2018
张皓天,中山大学,86.88,670,85212,1,硕士,2018
谢梓莹,中山大学,86.86,670,85212,1,硕士,2018
高凯诗,中山大学,86.86,670,85212,1,硕士,2018
冯诗睿,中山大学,86.86,670,85212,1,硕士,2018
张千瑶,中山大学,86.84,670,85212,1,硕士,2018
季育轩,中山大学,86.56,670,85212,1,硕士,2018
李烨,中山大学,86.51,670,85212,1,硕士,2018
史正凯,中山大学,86.35,670,85212,1,硕士,2018
雍琪,北京林业大学,86.35,670,85212,1,硕士,2018
莫华晓,中山大学,86.32,670,85212,1,硕士,2018
叶永杰,中山大学,86.31,670,85212,1,硕士,2018
李嘉泳,暨南大学,86.17,670,85212,1,硕士,2018
陈洁璇,中山大学,85.77,670,85212,1,硕士,2018
林诗鹭,中山大学,85.71,670,85212,1,硕士,2018
张朗淇,中山大学,85.44,670,85212,1,硕士,2018
施妮妮,合肥工业大学,85.42,670,85212,1,硕士,2018
洪赛丁,电子科技大学,85.38,670,85212,1,硕士,2018
李伟鹏,中山大学,85.09,670,85212,1,硕士,2018
林志平,华南师范大学,84.7,670,85212,1,硕士,2018
钟仕鹏,中山大学,84.66,670,85212,1,硕士,2018
方静如,湖南大学,84.64,670,85212,1,硕士,2018
田杨童,中山大学,84.57,670,85212,1,硕士,2018
周瑞莹,华南师范大学,84.34,670,85212,1,硕士,2018
罗幸荣,中山大学,84.25,670,85212,1,硕士,2018
罗裴然,华南师范大学,84.13,670,85212,1,硕士,2018
李强,南京航空航天大学,84.12,670,85212,1,硕士,2018
袁子逸,中山大学,84.11,670,85212,1,硕士,2018
莫浩然,中山大学,83.81,670,85212,1,硕士,2018
陈彦呈,中山大学,83.28,670,85212,1,硕士,2018
丁甲,西北大学,83.2,670,85212,1,硕士,2018
吕文静,武汉理工大学,82.61,670,85212,1,硕士,2018
孔雀屏,华南师范大学,82.6,670,85212,1,硕士,2018
张恺成,中山大学,82.6,670,85212,1,硕士,2018
苏琬棋,武汉理工大学,82.52,670,85212,1,硕士,2018
曾令雯,中山大学,82.49,670,85212,1,硕士,2018
梁子仲,中山大学,82.49,670,85212,1,硕士,2018
林少波,西南大学,82.24,670,85212,1,硕士,2018
叶梅,山东大学,82.13,670,85212,1,硕士,2018
杨儒伟,湖南师范大学,81.31,670,85212,1,硕士,2018
李志岚,中山大学,81.19,670,85212,1,硕士,2018
钟圳伟,东北大学,80.92,670,85212,1,硕士,2018
滕伟,吉林大学,80.34,670,85212,1,硕士,2018
张永红,中国矿业大学,80.33,670,85212,1,硕士,2018
黄荣洲,中山大学,79.09,670,85212,1,硕士,2018
程僚,湖南大学,77.44,670,85212,1,硕士,2018
郑少敏,华南师范大学,76.27,670,85212,1,硕士,2018
林佩勤,华南师范大学,76.08,670,85212,1,硕士,2018
蔡嘉彬,中山大学,75.77,670,85212,1,硕士,2018
曾博航,贵州大学,75,670,85212,1,硕士,2018
肖钟城,西安电子科技大学,75,670,85212,1,硕士,2018
刘志轩,中山大学,92.81,670,81200,69,直博生,2018
郭达雅,中山大学,92.42,670,81200,69,直博生,2018
罗柯,中山大学,91.61,670,81200,69,直博生,2018
黄羽盼,中山大学,90.12,670,81200,69,直博生,2018
钟宛君,中山大学,89.45,670,81200,69,直博生,2018
吴侃,中山大学,88.9,670,81200,69,直博生,2018
陈恳,北京师范大学,88.68,670,81200,69,直博生,2018
袁晨,华南理工大学,84.9,670,81200,69,直博生,2018
